particle_system My/Explosion
 {
    material        My/Flare
    particle_width  20
    particle_height 20
    cull_each       true
    quota           10000
    billboard_type  point
    billboard_origin center
    sorted true
 
    // Area emitter
    emitter Point
    {
        angle           180
        emission_rate   10000
	position 0 0 0
	time_to_live 3
	duration 0.1
	velocity 200
    }
 
    // Fader
    affector ColourFader
    {
	red -0.4
	green -0.4
	blue -0.4
	alpha -0.4
    }
    affector LinearForce
    {    
        //force_vector 0 -200 0
    }
 }