particle_system My/Particle
 {
    material        My/Flare
    particle_width  5
    particle_height 5
    cull_each       false
    quota           100
    billboard_type  point
    sorted true
 
    // Area emitter
    emitter Ellipsoid
    {
        angle           30
        emission_rate   40
	    time_to_live 2
        //time_to_live_min 2
        //time_to_live_max 2
        direction       0 1 0
        velocity       0.001
        colour 0.8 0.5 0.2
        width           4
        height          4
        depth           4
    }
 
    // Fader
    affector ColourFader
    {
        red -0.1
        green -0.1
        blue -0.1
    }
 }