particle_system My/Rain
 {
    particle_width  20
    particle_height 20
    cull_each       false
    quota           100
    billboard_type  point
    sorted true
 
    // Area emitter
    emitter Ellipsoid
    {
        colour_range_start 0 0 0.2
        colour_range_end 0 0 1
        angle           0
        emission_rate   1000
	    time_to_live 4
        direction       0 -1 0
        velocity       1000
        colour 0.0 0.0 1.0
        width           5
        height          5
        depth           5
    }
 }