material My/Pink
{
	technique
	{
		pass
		{
			lighting on
			depth_write on
			ambient 1 0.07 0.57
         		diffuse 1 0.1 0.8
         		emissive 0 0 0 1
		}
	}
}

material My/Orange
{
	technique
	{
		pass
		{
			lighting on
			depth_write on
			ambient 1 0.54 0
         		diffuse 1 0.6 0
         		emissive 0 0 0 1
			
		}
	}
}

material My/Black
{
	technique
	{
		pass
		{
			lighting on
			depth_write on
			ambient 0 0 0
         		diffuse 0 0 0
         		emissive 0 0 0 1
		}
	}
}

material My/Red
{
	technique
	{
		pass
		{
			lighting on
			depth_write on
			ambient 1 0 0
         		diffuse 1 0 0
         		emissive 0 0 0 1
		}
	}
}

material My/Blue
{
	technique
	{
		pass
		{
			lighting on
			depth_write on
			ambient 0 0 1
         		diffuse 0 0 1
         		emissive 0 0 0 1
		}
	}
}

material My/Green
{
	technique
	{
		pass
		{
			ambient 1 1 1
            	lighting on
            	depth_write on
            	diffuse 0 1 0
		}
	}
}